<svg width="120" height="29" viewBox="0 0 120 29" fill="none" xmlns="http://www.w3.org/2000/svg">
<path d="M10.0001 10L12.2452 16.9098H19.5106L13.6328 21.1803L15.8779 28.0902L10.0001 23.8197L4.12221 28.0902L6.36735 21.1803L0.489502 16.9098H7.75493L10.0001 10Z" fill="#600018"/>
<path d="M61.0001 0L63.2452 6.90983H70.5106L64.6328 11.1803L66.8779 18.0902L61.0001 13.8197L55.1222 18.0902L57.3674 11.1803L51.4895 6.90983H58.7549L61.0001 0Z" fill="#600018"/>
<path d="M110 10L112.245 16.9098H119.511L113.633 21.1803L115.878 28.0902L110 23.8197L104.122 28.0902L106.367 21.1803L100.49 16.9098H107.755L110 10Z" fill="#600018"/>
</svg>
